flip_flob_lab3/simulation/qsim/flip_flob_lab3.msim.vcd
$comment
	File created using the following command:
		vcd file flip_flob_lab3.msim.vcd -direction
$end
$date
	Thu Oct 11 19:48:04 2018
$end
$version
	ModelSim Version 10.1d
$end
$timescale
	1ps
$end
$scope module flip_flob_lab3_vlg_vec_tst $end
$var reg 1 ! av $end
$var reg 4 " entrada [3:0] $end
$var reg 1 # reset $end
$var wire 1 $ Qsalida [3] $end
$var wire 1 % Qsalida [2] $end
$var wire 1 & Qsalida [1] $end
$var wire 1 ' Qsalida [0] $end
$var wire 1 ( sampler $end
$scope module i1 $end
$var wire 1 ) gnd $end
$var wire 1 * vcc $end
$var wire 1 + unknown $end
$var tri1 1 , devclrn $end
$var tri1 1 - devpor $end
$var tri1 1 . devoe $end
$var wire 1 / av~combout $end
$var wire 1 0 reset~combout $end
$var wire 1 1 Qsalida[0]$latch~combout $end
$var wire 1 2 Qsalida[1]$latch~combout $end
$var wire 1 3 Qsalida[2]$latch~combout $end
$var wire 1 4 Qsalida[3]$latch~combout $end
$var wire 1 5 entrada~combout [3] $end
$var wire 1 6 entrada~combout [2] $end
$var wire 1 7 entrada~combout [1] $end
$var wire 1 8 entrada~combout [0] $end
$upscope $end
$upscope $end
$enddefinitions $end
#0
$dumpvars
0!
b0 "
0#
x'
x&
x%
x$
x(
0)
1*
x+
1,
1-
1.
0/
00
x1
x2
x3
x4
08
07
06
05
$end
#10000
1!
b1000 "
1/
15
0(
14
03
02
01
1$
0%
0&
0'
#20000
b1100 "
0!
b100 "
16
05
0/
1(
#30000
b110 "
1!
b1110 "
17
15
1/
0(
12
13
1&
1%
#40000
1#
b1111 "
b1011 "
0!
b11 "
10
18
06
05
0/
1(
04
03
02
0$
0%
0&
#50000
1!
b1011 "
1/
15
0(
#60000
b1001 "
b1101 "
0!
b101 "
07
16
05
0/
1(
#70000
1!
b1101 "
1/
15
0(
#80000
0#
b1100 "
b1000 "
0!
b0 "
00
08
06
05
0/
1(
#90000
b10 "
1!
b1010 "
17
15
1/
0(
12
14
1&
1$
#100000
b1110 "
0!
b110 "
16
05
0/
1(
#110000
1!
b1110 "
1/
15
0(
13
1%
#120000
1#
b1111 "
b1101 "
b1001 "
0!
b1 "
10
18
07
06
05
0/
1(
04
03
02
0$
0%
0&
#130000
1!
b1001 "
1/
15
0(
#140000
b1101 "
0!
b101 "
16
05
0/
1(
#150000
b111 "
1!
b1111 "
17
15
1/
0(
#160000
0#
b1110 "
b1010 "
0!
b10 "
00
08
06
05
0/
1(
#170000
1!
b1010 "
1/
15
0(
14
12
1$
1&
#180000
b1000 "
b1100 "
0!
b100 "
07
16
05
0/
1(
#190000
1!
b1100 "
1/
15
0(
13
02
1%
0&
#200000
1#
b1101 "
b1001 "
0!
b1 "
10
18
06
05
0/
1(
04
03
0$
0%
#210000
b11 "
1!
b1011 "
17
15
1/
0(
#220000
b1111 "
0!
b111 "
16
05
0/
1(
#230000
1!
b1111 "
1/
15
0(
#240000
0#
b1110 "
b1100 "
b1000 "
0!
b0 "
00
08
07
06
05
0/
1(
#250000
1!
b1000 "
1/
15
0(
14
1$
#260000
b1100 "
0!
b100 "
16
05
0/
1(
#270000
b110 "
1!
b1110 "
17
15
1/
0(
12
13
1&
1%
#280000
1#
b1111 "
b1011 "
0!
b11 "
10
18
06
05
0/
1(
04
03
02
0$
0%
0&
#290000
1!
b1011 "
1/
15
0(
#300000
b1001 "
b1101 "
0!
b101 "
07
16
05
0/
1(
#310000
1!
b1101 "
1/
15
0(
#320000
0#
b1100 "
b1000 "
0!
b0 "
00
08
06
05
0/
1(
#330000
b10 "
1!
b1010 "
17
15
1/
0(
12
14
1&
1$
#340000
b1110 "
0!
b110 "
16
05
0/
1(
#350000
1!
b1110 "
1/
15
0(
13
1%
#360000
1#
b1111 "
b1101 "
b1001 "
0!
b1 "
10
18
07
06
05
0/
1(
04
03
02
0$
0%
0&
#370000
1!
b1001 "
1/
15
0(
#380000
b1101 "
0!
b101 "
16
05
0/
1(
#390000
b111 "
1!
b1111 "
17
15
1/
0(
#400000
0#
b1110 "
b1010 "
0!
b10 "
00
08
06
05
0/
1(
#410000
1!
b1010 "
1/
15
0(
14
12
1$
1&
#420000
b1000 "
b1100 "
0!
b100 "
07
16
05
0/
1(
#430000
1!
b1100 "
1/
15
0(
13
02
1%
0&
#440000
1#
b1101 "
b1001 "
0!
b1 "
10
18
06
05
0/
1(
04
03
0$
0%
#450000
b11 "
1!
b1011 "
17
15
1/
0(
#460000
b1111 "
0!
b111 "
16
05
0/
1(
#470000
1!
b1111 "
1/
15
0(
#480000
0#
b1110 "
b1100 "
b1000 "
0!
b0 "
00
08
07
06
05
0/
1(
#490000
1!
b1000 "
1/
15
0(
14
1$
#500000
b1100 "
0!
b100 "
16
05
0/
1(
#510000
b110 "
1!
b1110 "
17
15
1/
0(
12
13
1&
1%
#520000
1#
b1111 "
b1011 "
0!
b11 "
10
18
06
05
0/
1(
04
03
02
0$
0%
0&
#530000
1!
b1011 "
1/
15
0(
#540000
b1001 "
b1101 "
0!
b101 "
07
16
05
0/
1(
#550000
1!
b1101 "
1/
15
0(
#560000
0#
b1100 "
b1000 "
0!
b0 "
00
08
06
05
0/
1(
#570000
b10 "
1!
b1010 "
17
15
1/
0(
12
14
1&
1$
#580000
b1110 "
0!
b110 "
16
05
0/
1(
#590000
1!
b1110 "
1/
15
0(
13
1%
#600000
1#
b1111 "
b1101 "
b1001 "
0!
b1 "
10
18
07
06
05
0/
1(
04
03
02
0$
0%
0&
#610000
1!
b1001 "
1/
15
0(
#620000
b1101 "
0!
b101 "
16
05
0/
1(
#630000
b111 "
1!
b1111 "
17
15
1/
0(
#640000
0#
b1110 "
b1010 "
0!
b10 "
00
08
06
05
0/
1(
#650000
1!
b1010 "
1/
15
0(
14
12
1$
1&
#660000
b1000 "
b1100 "
0!
b100 "
07
16
05
0/
1(
#670000
1!
b1100 "
1/
15
0(
13
02
1%
0&
#680000
1#
b1101 "
b1001 "
0!
b1 "
10
18
06
05
0/
1(
04
03
0$
0%
#690000
b11 "
1!
b1011 "
17
15
1/
0(
#700000
b1111 "
0!
b111 "
16
05
0/
1(
#710000
1!
b1111 "
1/
15
0(
#720000
0#
b1110 "
b1100 "
b1000 "
0!
b0 "
00
08
07
06
05
0/
1(
#730000
1!
b1000 "
1/
15
0(
14
1$
#740000
b1100 "
0!
b100 "
16
05
0/
1(
#750000
b110 "
1!
b1110 "
17
15
1/
0(
12
13
1&
1%
#760000
1#
b1111 "
b1011 "
0!
b11 "
10
18
06
05
0/
1(
04
03
02
0$
0%
0&
#770000
1!
b1011 "
1/
15
0(
#780000
b1001 "
b1101 "
0!
b101 "
07
16
05
0/
1(
#790000
1!
b1101 "
1/
15
0(
#800000
0#
b1100 "
b1000 "
0!
b0 "
00
08
06
05
0/
1(
#810000
b10 "
1!
b1010 "
17
15
1/
0(
12
14
1&
1$
#820000
b1110 "
0!
b110 "
16
05
0/
1(
#830000
1!
b1110 "
1/
15
0(
13
1%
#840000
1#
b1111 "
b1101 "
b1001 "
0!
b1 "
10
18
07
06
05
0/
1(
04
03
02
0$
0%
0&
#850000
1!
b1001 "
1/
15
0(
#860000
b1101 "
0!
b101 "
16
05
0/
1(
#870000
b111 "
1!
b1111 "
17
15
1/
0(
#880000
0#
b1110 "
b1010 "
0!
b10 "
00
08
06
05
0/
1(
#890000
1!
b1010 "
1/
15
0(
14
12
1$
1&
#900000
b1000 "
b1100 "
0!
b100 "
07
16
05
0/
1(
#910000
1!
b1100 "
1/
15
0(
13
02
1%
0&
#920000
1#
b1101 "
b1001 "
0!
b1 "
10
18
06
05
0/
1(
04
03
0$
0%
#930000
b11 "
1!
b1011 "
17
15
1/
0(
#940000
b1111 "
0!
b111 "
16
05
0/
1(
#950000
1!
b1111 "
1/
15
0(
#960000
0#
b1110 "
b1100 "
b1000 "
0!
b0 "
00
08
07
06
05
0/
1(
#970000
1!
b1000 "
1/
15
0(
14
1$
#980000
b1100 "
0!
b100 "
16
05
0/
1(
#990000
b110 "
1!
b1110 "
17
15
1/
0(
12
13
1&
1%
